{
  "id": "1234",
  "type": "my_message",
  "response_url": "https://s3.amazonaws.com/app-events.lotic.net/test",
  "data_sources": [
    {
      "id": 1234,
      "name": "Test Data Source",
      "attachments": [
        {
          "type": "UU",
          "value": "https://www.example.com"
        }
      ]
    }
  ]
}